{
    "KPlugin": {
        "Authors": [
            {
                "Email": "aleixpol@kde.org",
                "Name": "Aleix Pol i Gonzalez",
                "Name[ar]": "Aleix Pol i Gonzalez",
                "Name[az]": "Aleix Pol i Gonzalez",
                "Name[bg]": "Aleix Pol i Gonzalez",
                "Name[ca@valencia]": "Aleix Pol i Gonzalez",
                "Name[ca]": "Aleix Pol i Gonzalez",
                "Name[cs]": "Aleix Pol i Gonzalez",
                "Name[de]": "Aleix Pol i Gonzalez",
                "Name[en_GB]": "Aleix Pol i Gonzalez",
                "Name[eo]": "Aleix Pol i Gonzalez",
                "Name[es]": "Aleix Pol i Gonzalez",
                "Name[eu]": "Aleix Pol i Gonzalez",
                "Name[fi]": "Aleix Pol i Gonzalez",
                "Name[fr]": "Aleix Pol i Gonzalez",
                "Name[gl]": "Aleix Pol i Gonzalez",
                "Name[ia]": "Aleix Pol i Gonzalez",
                "Name[id]": "Aleix Pol i Gonzalez",
                "Name[ie]": "Aleix Pol i Gonzalez",
                "Name[is]": "Aleix Pol i Gonzalez",
                "Name[it]": "Aleix Pol i Gonzalez",
                "Name[ja]": "Aleix Pol i Gonzalez",
                "Name[ka]": "Aleix Pol i Gonzalez",
                "Name[ko]": "Aleix Pol i Gonzalez",
                "Name[lt]": "Aleix Pol i Gonzalez",
                "Name[nl]": "Aleix Pol i Gonzalez",
                "Name[nn]": "Aleix Pol i Gonzalez",
                "Name[pl]": "Aleix Pol i Gonzalez",
                "Name[pt]": "Aleix Pol i Gonzalez",
                "Name[pt_BR]": "Aleix Pol i Gonzalez",
                "Name[ro]": "Aleix Pol i Gonzalez",
                "Name[ru]": "Aleix Pol i Gonzalez",
                "Name[sk]": "Aleix Pol i Gonzalez",
                "Name[sl]": "Aleix Pol i Gonzalez",
                "Name[sv]": "Aleix Pol i Gonzalez",
                "Name[tr]": "Aleix Pol i Gonzalez",
                "Name[uk]": "Aleix Pol i Gonzalez",
                "Name[x-test]": "xxAleix Pol i Gonzalezxx",
                "Name[zh_CN]": "Aleix Pol i Gonzalez",
                "Name[zh_TW]": "Aleix Pol i Gonzalez"
            }
        ],
        "Description": "Use your devices as virtual monitors",
        "Description[ar]": "استخدم أجهزتك كشاشات افتراضية",
        "Description[az]": "Cihazlarınızı virtual monitorlar kimi istifadə edin",
        "Description[bg]": "Използвайте устройствата си като виртуални монитори",
        "Description[ca@valencia]": "Utilitzeu els vostres dispositius com a monitors virtuals",
        "Description[ca]": "Useu els vostres dispositius com a monitors virtuals",
        "Description[cs]": "Používejte svá zařízení jako virtuální monitory",
        "Description[de]": "Verwenden Sie Ihre Geräte als virtuelle Monitore",
        "Description[en_GB]": "Use your devices as virtual monitors",
        "Description[eo]": "Uzi viajn aparatojn kiel virtualajn monitorojn",
        "Description[es]": "Usar sus dispositivos como monitores virtuales",
        "Description[eu]": "Erabili zure gailuak alegiazko monitore gisa",
        "Description[fi]": "Käytä laitteita virtuaalinäyttöinä",
        "Description[fr]": "Utilisez vos périphériques comme des écrans virtuels",
        "Description[gl]": "Usar os seus dispositivos como monitores virtuais.",
        "Description[ia]": "Usa tu dispositivos como monitor virtual",
        "Description[id]": "Gunakan peranti Anda sebagai monitor virtual",
        "Description[is]": "Nota tækin þín sem sýndarskjái",
        "Description[it]": "Usa i tuoi dispositivi come schermi virtuali",
        "Description[ja]": "デバイスを仮想モニタとして使用",
        "Description[ka]": "გამოიყენეთ თქვენი მოწყობილობები ვირტუალურ მონიტორებად",
        "Description[ko]": "내 장치를 가상 모니터로 사용",
        "Description[lt]": "Naudoti įrenginius kaip virtualius monitorius",
        "Description[nl]": "Uw apparaten als virtuele monitoren gebruiken",
        "Description[nn]": "Bruk einingane som virtuelle avlyttarar",
        "Description[pl]": "Użyj swojego urządzenia jako wyświetlacza wirtualnego",
        "Description[pt]": "Usar os seus dispositivos como monitores virtuais",
        "Description[pt_BR]": "Usa seus dispositivos como monitores virtuais",
        "Description[ro]": "Folosiți-vă dispozitivele ca monitoare virtuale",
        "Description[ru]": "Использование устройств в качестве виртуальных мониторов",
        "Description[sk]": "Používajte zariadenia ako virtuálne monitory",
        "Description[sl]": "Uporabi vaše naprave kot navidezne monitorje",
        "Description[sv]": "Använd apparater som virtuella bildskärmar",
        "Description[tr]": "Aygıtları sanal ekranlar olarak kullan",
        "Description[uk]": "Використання ваших пристроїв як віртуальних моніторів",
        "Description[x-test]": "xxUse your devices as virtual monitorsxx",
        "Description[zh_CN]": "使用您的设备作为虚拟显示器",
        "Description[zh_TW]": "將您的裝置作為虛擬螢幕使用",
        "EnabledByDefault": true,
        "Icon": "video-monitor",
        "License": "GPL",
        "Name": "Virtual Monitor",
        "Name[ar]": "شاشة افتراضية",
        "Name[az]": "Virtual monitor",
        "Name[bg]": "Виртуален монитор",
        "Name[ca@valencia]": "Monitor virtual",
        "Name[ca]": "Monitor virtual",
        "Name[cs]": "Virtuální monitor",
        "Name[de]": "Virtueller Monitor",
        "Name[en_GB]": "Virtual Monitor",
        "Name[eo]": "Virtuala Monitoro",
        "Name[es]": "Monitor virtual",
        "Name[eu]": "Alegiazko monitorea",
        "Name[fi]": "Virtuaalinäyttö",
        "Name[fr]": "Écran virtuel",
        "Name[gl]": "Monitor virtual",
        "Name[ia]": "Monitor virtual",
        "Name[id]": "Monitor Virtual",
        "Name[is]": "Sýndarskjár",
        "Name[it]": "Schermo virtuale",
        "Name[ja]": "仮想モニタ",
        "Name[ka]": "ვირტუალური ეკრანი",
        "Name[ko]": "가상 모니터",
        "Name[lt]": "Virtualus monitorius",
        "Name[nl]": "Virtuele monitor",
        "Name[nn]": "Virtuell avlyttar",
        "Name[pl]": "Wyświetlacz wirtualny",
        "Name[pt]": "Monitor Virtual",
        "Name[pt_BR]": "Monitor virtual",
        "Name[ro]": "Monitor virtual",
        "Name[ru]": "Виртуальный монитор",
        "Name[sk]": "Virtuálny Monitor",
        "Name[sl]": "Navidezni monitor",
        "Name[sv]": "Virtuell bildskärm",
        "Name[tr]": "Sanal Ekran",
        "Name[uk]": "Віртуальний монітор",
        "Name[x-test]": "xxVirtual Monitorxx",
        "Name[zh_CN]": "虚拟显示器",
        "Name[zh_TW]": "虛擬螢幕"
    },
    "X-KdeConnect-OutgoingPacketType": [
        "kdeconnect.virtualmonitor",
        "kdeconnect.virtualmonitor.request"
    ],
    "X-KdeConnect-SupportedPacketType": [
        "kdeconnect.virtualmonitor",
        "kdeconnect.virtualmonitor.request"
    ]
}
