{
    "KPlugin": {
        "Authors": [
            {
                "Email": "kinnalru@gmail.com",
                "Name": "Samoilenko Yuri",
                "Name[ar]": "سامويلنكو يوري",
                "Name[az]": "Samoilenko Yuri",
                "Name[bg]": "Samoilenko Yuri",
                "Name[ca@valencia]": "Samoilenko Yuri",
                "Name[ca]": "Samoilenko Yuri",
                "Name[cs]": "Samoilenko Yuri",
                "Name[da]": "Samoilenko Yuri",
                "Name[de]": "Samoilenko Yuri",
                "Name[el]": "Samoilenko Yuri",
                "Name[en_GB]": "Samoilenko Yuri",
                "Name[eo]": "Samoilenko Jurij",
                "Name[es]": "Samoilenko Yuri",
                "Name[et]": "Samoilenko Yuri",
                "Name[eu]": "Samoilenko Yuri",
                "Name[fi]": "Samoilenko Yuri",
                "Name[fr]": "Samoilenko Yuri",
                "Name[gl]": "Samoilenko Yuri",
                "Name[hu]": "Samoilenko Yuri",
                "Name[ia]": "Samoilenko Yuri",
                "Name[id]": "Samoilenko Yuri",
                "Name[ie]": "Samoilenko Yuri",
                "Name[is]": "Samoilenko Yuri",
                "Name[it]": "Samoilenko Yuri",
                "Name[ja]": "Samoilenko Yuri",
                "Name[ka]": "Samoilenko Yuri",
                "Name[ko]": "Samoilenko Yuri",
                "Name[lt]": "Samoilenko Yuri",
                "Name[nl]": "Samoilenko Yuri",
                "Name[nn]": "Samoilenko Yuri",
                "Name[pl]": "Samoilenko Yuri",
                "Name[pt]": "Samoilenko Yuri",
                "Name[pt_BR]": "Samoilenko Yuri",
                "Name[ro]": "Samoilenko Yuri",
                "Name[ru]": "Юрий Самойленко",
                "Name[sk]": "Samoilenko Yuri",
                "Name[sl]": "Samoilenko Yuri",
                "Name[sr@ijekavian]": "Јуриј Самојленко",
                "Name[sr@ijekavianlatin]": "Jurij Samojlenko",
                "Name[sr@latin]": "Jurij Samojlenko",
                "Name[sr]": "Јуриј Самојленко",
                "Name[sv]": "Samoilenko Yuri",
                "Name[tr]": "Samoilenko Yuri",
                "Name[uk]": "Юрій Самойленко",
                "Name[x-test]": "xxSamoilenko Yurixx",
                "Name[zh_CN]": "Samoilenko Yuri",
                "Name[zh_TW]": "Samoilenko Yuri"
            }
        ],
        "Description": "Browse the remote device filesystem using SFTP",
        "Description[ar]": "تصفّح نظام ملفّات الجهاز البعيد باستخدام SFTP",
        "Description[az]": "Uzaq cihazın fayl sisteminə SFTP ilə baxmaq",
        "Description[bg]": "Преглед на отдалечена файлова система с SFTP",
        "Description[ca@valencia]": "Navega pel sistema de fitxers del dispositiu remot emprant SFTP",
        "Description[ca]": "Navega pel sistema de fitxers del dispositiu remot emprant SFTP",
        "Description[cs]": "Prohlížejte souborový systém zařízení pomocí SFTP",
        "Description[da]": "Gennemse den eksterne enheds filsystem med SFTP",
        "Description[de]": "Das Dateisystem des entfernten Geräts über SFTP durchsuchen",
        "Description[el]": "Περιήγηση του απομακρυσμένου συστήματος αρχείων με χρήση SFTP",
        "Description[en_GB]": "Browse the remote device filesystem using SFTP",
        "Description[eo]": "Foliumi la fora aparato dosiersistemo uzante SFTP",
        "Description[es]": "Navegar por el sistema de archivos del dispositivo remoto usando SFTP",
        "Description[et]": "Oma seadme failisüsteemi sirvimine SFTP vahendusel",
        "Description[eu]": "Arakatu urruneko gailuaren fitxategi-sistema SFTP erabiliz",
        "Description[fi]": "Selaa etälaitteiden tiedostojärjestelmiä SFTP:llä",
        "Description[fr]": "Naviguer dans le système de fichiers du périphérique distant en utilisant SFTP",
        "Description[gl]": "Explore o sistema de ficheiros do dispositivo remoto mediante SFTP.",
        "Description[hu]": "Távoli fájlrendszerek böngészése SFTP-n keresztül",
        "Description[ia]": "Naviga le systema de file de dispositivo remote usante SFTP",
        "Description[id]": "Telusuri sistem berkas peranti jarak jauh menggunakan SFTP",
        "Description[is]": "Vafra um fjartengt skráarkerfi með SFTP",
        "Description[it]": "Sfoglia il filesystem del dispositivo remoto utilizzando SFTP",
        "Description[ja]": "SFTP を利用してリモートデバイスのファイルシステムを探索",
        "Description[ka]": "დაშორებული მოწყობილობის ფაილური სისტემის დათვალიერება SFTP-ის საშუალებით",
        "Description[ko]": "SFTP로 원격 장치 파일 시스템 탐색",
        "Description[lt]": "Naršyti nuotolinio įrenginio failų sistemą naudojant SFTP",
        "Description[nl]": "Blader door het bestandssysteem met SFTP op het apparaat op afstand",
        "Description[nn]": "Bla gjennom filsystemet på eininga med SFTP",
        "Description[pl]": "Przegląda system plików innego urządzenia z tego urządzenia, używając SFTP",
        "Description[pt]": "Navegar pelo sistema de ficheiros de um dispositivo remoto por SFTP",
        "Description[pt_BR]": "Navegue pelo sistema de arquivos do dispositivo usando SFTP",
        "Description[ro]": "Răsfoiește sistemul de fișiere al dispozitivului distant prin SFTP",
        "Description[ru]": "Просмотр удалённой файловой системы с помощью SFTP",
        "Description[sk]": "Prehliadanie súborového systému vzdialeného zariadenia pomocou SFTP",
        "Description[sl]": "Brskaj po sistemu datotek oddaljene naprave s pomočjo SFTP",
        "Description[sr@ijekavian]": "Прегледање удаљеног фајл система помоћу СФТП‑а",
        "Description[sr@ijekavianlatin]": "Pregledanje udaljenog fajl sistema pomoću SFTP‑a",
        "Description[sr@latin]": "Pregledanje udaljenog fajl sistema pomoću SFTP‑a",
        "Description[sr]": "Прегледање удаљеног фајл система помоћу СФТП‑а",
        "Description[sv]": "Bläddra i den andra apparatens filsystem med SFTP",
        "Description[tr]": "Uzak aygıt dosya sistemine SFTP kullanarak göz at",
        "Description[uk]": "Перегляд файлових систем на сторонніх пристроях за допомогою SFTP",
        "Description[x-test]": "xxBrowse the remote device filesystem using SFTPxx",
        "Description[zh_CN]": "通过 SFTP 浏览远程设备文件系统",
        "Description[zh_TW]": "使用 SFTP 來瀏覽遠端的檔案系統",
        "EnabledByDefault": true,
        "Icon": "folder-documents",
        "License": "GPL",
        "Name": "Remote filesystem browser",
        "Name[ar]": "متصفّح نظام الملفّات البعيد",
        "Name[az]": "Uzaq fayllara baxma vasitəsi",
        "Name[bg]": "Преглед на отдалечена файлова система",
        "Name[ca@valencia]": "Navegador del sistema de fitxers remot",
        "Name[ca]": "Navegador del sistema de fitxers remot",
        "Name[cs]": "Vzdálený prohlížeč souborového systému",
        "Name[da]": "Browser til eksternt filsystem",
        "Name[de]": "Datei-Browser für entferne Systeme",
        "Name[el]": "Περιηγητής απομακρυσμένου συστήματος αρχείων",
        "Name[en_GB]": "Remote filesystem browser",
        "Name[eo]": "Fora dosiersistema retumilo",
        "Name[es]": "Navegador de sistema de archivos remoto",
        "Name[et]": "Kaug-failisüsteemi sirvija",
        "Name[eu]": "Urruneko fitxategi-sistemaren arakatzailea",
        "Name[fi]": "Etätiedostojärjestelmäselain",
        "Name[fr]": "Explorateur à distance du système de fichiers",
        "Name[gl]": "Navegador do sistema de ficheiros remoto",
        "Name[hu]": "Távoli fájlrendszer-böngésző",
        "Name[ia]": "Navigator de systema de file remote",
        "Name[id]": "Peramban sistem berkas jarak jauh",
        "Name[is]": "Vafri fyrir fjartengd skráakerfi",
        "Name[it]": "Sfoglia il filesystem remoto",
        "Name[ja]": "リモートファイルシステムブラウザ",
        "Name[ka]": "დაშორებული ფაილური სისტემის ბრაუზერი",
        "Name[ko]": "원격 파일 시스템 탐색기",
        "Name[lt]": "Nuotolinės failų sistemos naršyklė",
        "Name[nl]": "Bestandssysteembrowser op afstand",
        "Name[nn]": "Bla gjennom eksternt filsystem",
        "Name[pl]": "Przeglądanie systemu plików innego urządzenia",
        "Name[pt]": "Navegador de sistemas de ficheiros remotos",
        "Name[pt_BR]": "Navegador do sistema de arquivos remoto",
        "Name[ro]": "Navigator sistem de fișiere la distanță",
        "Name[ru]": "Просмотр удалённой файловой системы",
        "Name[sk]": "Prehliadač vzdialeného súborového systému",
        "Name[sl]": "Brskalnik oddaljenega sistema datotek",
        "Name[sr@ijekavian]": "Прегледач удаљеног фајл система",
        "Name[sr@ijekavianlatin]": "Pregledač udaljenog fajl sistema",
        "Name[sr@latin]": "Pregledač udaljenog fajl sistema",
        "Name[sr]": "Прегледач удаљеног фајл система",
        "Name[sv]": "Extern filsystembläddrare",
        "Name[tr]": "Uzak dosya sistemi tarayıcısı",
        "Name[uk]": "Перегляд віддалених файлових систем",
        "Name[x-test]": "xxRemote filesystem browserxx",
        "Name[zh_CN]": "远程文件系统浏览器",
        "Name[zh_TW]": "遠端檔案瀏覽器"
    },
    "X-KdeConnect-OutgoingPacketType": [
        "kdeconnect.sftp.request"
    ],
    "X-KdeConnect-SupportedPacketType": [
        "kdeconnect.sftp"
    ]
}
